user_id,latitude,longitude,local_datetime,speed,state
1,-19.924212130959734,-43.946397923872766,2020-03-02 07:58:01,2.57682817191907,MG
1,-19.924232260152625,-43.946349394259016,2020-03-09 08:13:11,2.628006229733516,MG
1,-19.924126213848375,-43.946250570308486,2020-03-16 08:19:24,2.576992042389769,MG
1,-19.92418818564069,-43.94635790492785,2020-03-23 09:18:00,2.444654413057487,MG
1,-19.92056615318177,-43.95039363335795,2020-03-02 08:21:19,23.73107393021193,MG
1,-19.919719856460357,-43.94259491865957,2020-03-09 08:54:10,22.869675127535842,MG
1,-19.933256947611856,-43.94213203289037,2020-03-16 09:46:30,31.950683473054976,MG
1,-19.92680549929824,-43.93867168016335,2020-03-23 10:02:48,31.428340087124912,MG
1,-19.928808164304456,-43.94754265715473,2020-03-02 09:02:53,5.742753612567031,MG
1,-19.917357786722796,-43.95189626792233,2020-03-09 09:58:22,31.172127367549102,MG
1,-19.919589133788897,-43.942048466644984,2020-03-16 10:35:59,26.904683287883664,MG
1,-19.915612637243367,-43.942770103227105,2020-03-23 10:56:28,7.626166621197335,MG
1,-19.9404306261272,-43.93433718274487,2020-03-02 08:53:40,1.456258204238113,MG
1,-19.940417761526348,-43.93449809298257,2020-03-09 09:00:19,1.285900142570235,MG
1,-19.94039783576991,-43.93434130664011,2020-03-16 09:02:56,1.7561454765678899,MG
1,-19.94039355004407,-43.93439234584187,2020-03-23 09:55:51,2.7263411063918297,MG
1,-19.914676595685215,-43.936769837002466,2020-03-02 19:39:17,39.834185727164225,MG
1,-19.918852349575037,-43.943205906885616,2020-03-09 20:19:31,16.08968567001842,MG
1,-19.929952259753726,-43.94920607547946,2020-03-16 20:37:52,8.238025078889624,MG
1,-19.91446955993468,-43.937743012605225,2020-03-23 21:25:17,22.734185540722848,MG
1,-19.924242159497414,-43.94640232123173,2020-05-01 19:17:22,2.8492931684528546,MG
1,-19.924079480131862,-43.94637086249904,2020-05-08 20:06:48,0.7411390080294346,MG
1,-19.924194370006877,-43.946285824515996,2020-05-15 20:25:52,1.256490778285,MG
1,-19.924233582948652,-43.94625538930601,2020-05-22 20:42:01,1.8227322629943024,MG
1,-19.924100134265434,-43.94602093833599,2020-03-03 07:29:44,1.4790911109003648,MG
1,-19.92414357927581,-43.94590211839541,2020-03-10 07:37:50,0.5751851869296141,MG
1,-19.923982243674043,-43.94601507646956,2020-03-17 07:50:44,0.9455032348137917,MG
1,-19.923972017547964,-43.94602535372717,2020-03-24 08:10:25,2.1823480817163743,MG
1,-19.930543317693772,-43.93801824399847,2020-03-03 08:12:38,28.41773037862163,MG
1,-19.921411579943804,-43.94163186451021,2020-03-10 08:43:30,18.63172369810915,MG
1,-19.929816379192488,-43.9474338302051,2020-03-17 08:58:50,1.7204963885544295,MG
1,-19.926489609139708,-43.935380160680936,2020-03-24 09:15:51,23.97531517238039,MG
1,-19.935777837810534,-43.939898018804556,2020-03-03 09:22:36,17.65971438462889,MG
1,-19.919127264895124,-43.94574612295768,2020-03-10 09:33:31,9.053634713689203,MG
1,-19.92233341484915,-43.949179378973135,2020-03-17 09:40:28,37.793442612527215,MG
1,-19.929677095454892,-43.93970320418819,2020-03-24 10:41:10,11.058988508971892,MG
1,-19.940441240623382,-43.93444213300858,2020-03-03 09:46:37,2.248020760861865,MG
1,-19.94044999040056,-43.93443763765729,2020-03-10 10:26:14,1.668492897750652,MG
1,-19.94039976604285,-43.93446276996882,2020-03-17 11:23:28,1.2050865524818017,MG
1,-19.940450261252092,-43.93437205113439,2020-03-24 11:27:04,2.683258685485016,MG
1,-19.93109605341613,-43.94164260344881,2020-03-03 19:59:21,0.2666467363827266,MG
1,-19.93111250213281,-43.94164605759149,2020-03-10 20:59:57,2.4757714618103317,MG
1,-19.930961008493668,-43.94150693783035,2020-03-17 21:04:27,0.9182076305052347,MG
1,-19.93091634218231,-43.94155538166485,2020-03-24 21:10:11,1.239135766508827,MG
1,-19.93343813944374,-43.94407978187091,2020-03-03 21:25:26,20.83567960742687,MG
1,-19.936290170725243,-43.94098867541632,2020-03-10 22:26:16,5.1080437463670485,MG
1,-19.92991404744228,-43.95244217713178,2020-03-17 22:51:35,4.05793791608212,MG
1,-19.920476820803916,-43.945792885267664,2020-03-24 23:24:34,1.314685328360244,MG
1,-19.924095218228995,-43.945974068876595,2020-03-03 21:30:43,0.7142665254047252,MG
1,-19.92415158378055,-43.94590043271826,2020-03-10 22:07:30,1.8894622214518162,MG
1,-19.923981490169716,-43.94589278427469,2020-03-17 22:57:51,2.6430254281282894,MG
1,-19.92399472738977,-43.946004535974275,2020-03-24 23:43:54,0.23380006502990636,MG
1,-19.92368417682577,-43.946141122038135,2020-03-04 07:26:23,2.858847776637941,MG
1,-19.923667155247017,-43.94612871692613,2020-03-11 08:06:24,0.21191141398168448,MG
1,-19.923650054299994,-43.94624931922053,2020-03-18 08:36:06,1.2465072077191233,MG
1,-19.923615160924268,-43.946180449700975,2020-03-25 08:54:15,0.9640216714863274,MG
1,-19.923542001991677,-43.95082907367975,2020-03-04 08:14:22,3.918718710134362,MG
1,-19.931248685612868,-43.93822120382966,2020-03-11 08:45:52,34.19644588990252,MG
1,-19.93069734622362,-43.9410359220853,2020-03-18 08:48:02,0.9235352873857148,MG
1,-19.919608037822798,-43.95234437205597,2020-03-25 09:08:47,21.677541696839395,MG
1,-19.93026424850448,-43.94687912884879,2020-03-04 09:39:28,16.56358512004147,MG
1,-19.933242333413492,-43.93915430396463,2020-03-11 10:36:31,20.314488793141628,MG
1,-19.93151577113867,-43.932644868592845,2020-03-18 11:14:46,12.151281505145898,MG
1,-19.92524391697362,-43.93229550221156,2020-03-25 11:20:58,7.227448601377878,MG
1,-19.940436925076334,-43.93442390070948,2020-03-04 09:14:02,1.1652979423067864,MG
1,-19.94044900859844,-43.934411379613415,2020-03-11 10:12:21,2.333082424704949,MG
1,-19.94039247396628,-43.93448292843068,2020-03-18 10:27:01,2.55767771436853,MG
1,-19.940478693591924,-43.9344385911814,2020-03-25 11:08:42,0.5754054810278452,MG
1,-19.92369421655766,-43.94626049519055,2020-03-04 19:57:30,1.997554636018733,MG
1,-19.92365147128677,-43.94623656298245,2020-03-11 20:55:18,0.5734508776465881,MG
1,-19.923547838812176,-43.94623122799992,2020-03-18 21:24:35,0.5622146840147833,MG
1,-19.923551258246366,-43.94627449652653,2020-03-25 21:40:30,2.614850116164375,MG
1,-19.92457057089799,-43.94690144221037,2020-03-05 07:41:54,2.3295974128153527,MG
1,-19.924576392727037,-43.94686075750741,2020-03-12 07:44:40,0.2069623910272415,MG
1,-19.924514550777637,-43.946739864423556,2020-03-19 08:28:51,1.0264063554330336,MG
1,-19.924431598550637,-43.94671663536799,2020-03-26 09:04:45,1.2111540621456873,MG
1,-19.929492083224105,-43.94952639169072,2020-03-05 08:38:46,8.60097903456418,MG
1,-19.926817247397942,-43.94153557893372,2020-03-12 08:43:09,22.31981057122699,MG
1,-19.932913967733015,-43.945502048684524,2020-03-19 09:07:38,6.19933582387416,MG
1,-19.927596111885798,-43.936504451275226,2020-03-26 09:54:28,6.118809492058489,MG
1,-19.94040844555068,-43.934721477519716,2020-03-05 09:31:24,2.911643916436828,MG
1,-19.940544324984,-43.934599316643684,2020-03-12 09:54:10,1.6775375366402498,MG
1,-19.940456854923674,-43.934701164944116,2020-03-19 10:46:08,0.9650116009913186,MG
1,-19.940456839235562,-43.93471116984997,2020-03-26 11:21:41,2.9964468697552045,MG
1,-19.93106521638476,-43.94167332802606,2020-03-05 19:50:53,2.3756884018712014,MG
1,-19.930898465303077,-43.94178211133114,2020-03-12 20:49:07,2.516858556090718,MG
1,-19.930905377351767,-43.941643913190326,2020-03-19 21:25:18,0.7263535058728721,MG
1,-19.930920107088763,-43.94178308473503,2020-03-26 21:37:29,0.9059651821409817,MG
1,-19.93655841722171,-43.948276545657464,2020-03-05 20:42:31,39.62323468701067,MG
1,-19.929454178378585,-43.94745906918257,2020-03-12 20:48:29,33.70729183873083,MG
1,-19.932532356114745,-43.934167873366285,2020-03-19 21:08:37,28.078818810734447,MG
1,-19.935285249444586,-43.93527168083117,2020-03-26 22:04:15,10.346177893244244,MG
1,-19.92445236585484,-43.94675380630305,2020-03-05 21:28:07,2.9730158394655204,MG
1,-19.92440908990555,-43.94676448522898,2020-03-12 21:55:24,0.6027789418925147,MG
1,-19.924464241699603,-43.94674444267944,2020-03-19 22:20:58,2.1105159994015565,MG
1,-19.924421689419617,-43.94687337754859,2020-03-26 22:50:04,1.407540860749492,MG
1,-19.92396832296689,-43.94636925962281,2020-03-06 07:27:14,2.1923850063486374,MG
1,-19.923899547721692,-43.94626348493243,2020-03-13 07:57:57,2.8523561176632617,MG
1,-19.924021087664375,-43.946360016811624,2020-03-20 08:58:32,0.4131671185784902,MG
1,-19.923932951106647,-43.946221907163675,2020-03-27 09:19:45,0.265409704769191,MG
1,-19.918998705507025,-43.94541669406854,2020-03-06 08:50:49,31.89452691043612,MG
1,-19.923193163050193,-43.945174263528806,2020-03-13 09:07:08,7.243341601848303,MG
1,-19.919754917924838,-43.95059653192397,2020-03-20 10:06:40,16.80849805349685,MG
1,-19.918017256218413,-43.949205284166965,2020-03-27 10:41:22,31.350347546628967,MG
1,-19.940356198226297,-43.93443055913117,2020-03-06 09:12:45,0.42193176644410135,MG
1,-19.940272912578028,-43.934491223293634,2020-03-13 09:24:14,2.4329604478702636,MG
1,-19.940210148159622,-43.93452400229147,2020-03-20 09:41:29,1.9796278574337476,MG
1,-19.9402523543312,-43.93436312096282,2020-03-27 10:00:05,0.15086035315500299,MG
1,-19.940471376285327,-43.93008835142019,2020-03-06 19:25:18,35.294992424042185,MG
1,-19.93585795491171,-43.93122073428076,2020-03-13 20:01:15,3.0030692675789044,MG
1,-19.929488989882966,-43.94184296120125,2020-03-20 20:59:06,36.769313698189585,MG
1,-19.92574364047261,-43.934736515865005,2020-03-27 21:43:59,6.9854816200277865,MG
1,-19.92386707000387,-43.946346643299066,2020-03-06 19:46:28,1.8012082646850984,MG
1,-19.923871702953072,-43.946367570391395,2020-03-13 19:52:27,2.576302214734283,MG
1,-19.923854082356236,-43.94628029904306,2020-03-20 20:38:59,0.6214270253520451,MG
1,-19.923975653016456,-43.94628938723275,2020-03-27 20:43:21,0.27017298487048125,MG
1,-19.930532068150878,-43.93982108339249,2020-03-07 15:52:39,1.0090811910853408,MG
1,-19.939592434362357,-43.942004213384145,2020-03-14 15:55:05,28.324988145774114,MG
1,-19.93276903011607,-43.93281545420842,2020-03-21 16:49:27,37.53022877149549,MG
1,-19.938096663846473,-43.94464517404525,2020-03-28 17:10:00,13.32535371294785,MG
1,-19.92393197247818,-43.94640937430088,2020-03-07 20:29:48,2.5914603053269807,MG
1,-19.92402545234188,-43.94640814270634,2020-03-14 21:24:43,0.7893785400901207,MG
1,-19.92391941317624,-43.94623103771178,2020-03-21 22:03:41,1.7943450291690357,MG
1,-19.923919724049934,-43.94622833233526,2020-03-28 22:15:36,2.2824917490294134,MG
1,-19.92403269503206,-43.94633264874192,2020-03-08 17:38:51,0.12266895934021421,MG
1,-19.924023724645828,-43.94625790242474,2020-03-15 17:55:18,2.9253620048072193,MG
1,-19.92387211915506,-43.946382995636775,2020-03-22 18:31:59,2.9025368794176103,MG
1,-19.923902368411966,-43.946360163621854,2020-03-29 19:30:35,2.246684458251213,MG
1,-19.924017490876444,-43.9462845130863,2020-03-14 12:57:01,1.560868074297539,MG
1,-19.92401965769877,-43.94639861294363,2020-03-21 13:52:57,0.19815660279912145,MG
1,-19.92397940342042,-43.94622660990939,2020-03-28 13:59:51,1.4029392241648606,MG
1,-19.923893216691283,-43.946230208619475,2020-04-04 14:28:20,2.9057928380670113,MG
1,-19.92402274572674,-43.9462877371104,2020-03-15 14:40:50,1.5983227460724363,MG
1,-19.923931723498114,-43.9462309267095,2020-03-22 15:07:28,0.49194776789895844,MG
1,-19.9238587015996,-43.946378540700344,2020-03-29 15:39:08,1.4859186017728327,MG
1,-19.92391934894875,-43.946403992486445,2020-04-05 15:53:33,0.7343845069192504,MG
1,-20.69072287954509, -44.745250401399275,2020-04-06 08:00:43,25,MG
1,-21.95881903895792, -45.62470266812162,2020-04-06 12:06:45,35,MG
2,-23.454039979000324,-46.398542772943436,2020-03-02 07:20:03,2.8754130423953326,SP
2,-23.45389520563416,-46.39851961146741,2020-03-09 07:22:17,0.30801008638959115,SP
2,-23.45396847737077,-46.39862315434035,2020-03-16 07:45:36,1.167574818270149,SP
2,-23.45387455951297,-46.39851033693516,2020-03-23 08:06:51,2.897056646367175,SP
2,-23.448288616133723,-46.401922866964284,2020-03-02 09:06:15,8.540319261829529,SP
2,-23.450846137407574,-46.407165583153606,2020-03-09 09:21:36,35.5983813489731,SP
2,-23.460876995104734,-46.41113703208397,2020-03-16 10:10:12,8.649402162951176,SP
2,-23.447374697259583,-46.40701771107102,2020-03-23 10:27:19,32.997641823393394,SP
2,-23.437215385887434,-46.413381282737305,2020-03-02 08:33:19,31.799654740533175,SP
2,-23.436521016438153,-46.40637492500085,2020-03-09 09:23:02,3.9741822739849924,SP
2,-23.446439096748893,-46.40020670326233,2020-03-16 09:49:48,11.997474161970377,SP
2,-23.439661705461397,-46.41398431558066,2020-03-23 10:29:31,6.519989746493351,SP
2,-23.42450746557295,-46.476159173013066,2020-03-02 09:40:07,0.9193631715615127,SP
2,-23.42449449096325,-46.476142576238594,2020-03-09 10:40:45,1.042471986584068,SP
2,-23.424625583405312,-46.47624481999389,2020-03-16 10:56:22,1.0985698572968547,SP
2,-23.424507650713554,-46.476172181433796,2020-03-23 11:50:51,0.38131196457125505,SP
2,-23.434563706385873,-46.4191043385913,2020-03-02 20:02:27,30.735323016962873,SP
2,-23.431471140989856,-46.41878053839085,2020-03-09 20:50:45,0.850216362928909,SP
2,-23.441451824313084,-46.413646145259506,2020-03-16 21:39:33,30.978549632262414,SP
2,-23.42589605106388,-46.41595493474841,2020-03-23 22:00:43,30.6968335608493,SP
2,-23.453979970280983,-46.39860184489655,2020-05-02 20:41:04,0.33906974034813003,SP
2,-23.45401278086533,-46.3985202097325,2020-05-09 20:52:52,2.3508512163997386,SP
2,-23.45401161803898,-46.39850239655592,2020-05-16 21:01:47,2.153995625733309,SP
2,-23.4539709376722,-46.39860226931625,2020-05-23 21:24:39,0.5529156835679113,SP
2,-23.453847846038855,-46.398545323604125,2020-03-03 07:59:30,2.4556474072878145,SP
2,-23.453869651272026,-46.39854374045972,2020-03-10 08:06:11,1.7086409265462557,SP
2,-23.453992973368457,-46.3986028832136,2020-03-17 08:35:24,1.451190794634724,SP
2,-23.453875260684107,-46.398657246554485,2020-03-24 08:36:46,1.9040067888999208,SP
2,-23.454369607967166,-46.40971990615885,2020-03-03 08:43:05,7.380167289360871,SP
2,-23.45614231879967,-46.41304349518867,2020-03-10 08:59:22,8.555078572652942,SP
2,-23.44377292529923,-46.411157109412265,2020-03-17 09:20:47,4.601384442054455,SP
2,-23.460745700112586,-46.40300579159513,2020-03-24 10:07:34,10.15358914227037,SP
2,-23.42160912188148,-46.41257851624625,2020-03-03 08:49:15,3.011175142980165,SP
2,-23.43410474998316,-46.40416969267954,2020-03-10 08:59:12,25.95412557113768,SP
2,-23.42371790216725,-46.397690850680625,2020-03-17 09:57:03,27.792492809552474,SP
2,-23.42564708752259,-46.40951502557121,2020-03-24 10:44:17,26.06080405462561,SP
2,-23.424513722029854,-46.47617786326494,2020-03-03 09:46:06,2.2242494121393173,SP
2,-23.42450304128508,-46.47614974673789,2020-03-10 10:19:27,2.679711964229073,SP
2,-23.424606232393465,-46.476179469470395,2020-03-17 11:04:31,2.1776646624188296,SP
2,-23.42462970754904,-46.47618427599529,2020-03-24 12:01:35,0.1617839265660868,SP
2,-23.438515480701344,-46.43759789066945,2020-03-03 18:52:28,0.44531469030657966,SP
2,-23.43845059675206,-46.437464172377894,2020-03-10 19:25:10,1.7371825802949095,SP
2,-23.43856410438935,-46.43759447589824,2020-03-17 20:13:54,1.8334265071859357,SP
2,-23.438450647688043,-46.437524099559894,2020-03-24 20:27:40,1.2506124848908846,SP
2,-23.427349599129826,-46.41524776335646,2020-03-03 20:31:56,20.59923317561976,SP
2,-23.429346041691446,-46.41421992891746,2020-03-10 20:49:07,5.34651328831065,SP
2,-23.42773538355191,-46.41286551554415,2020-03-17 21:26:10,5.644115208997312,SP
2,-23.4344585414689,-46.419647522073284,2020-03-24 22:08:52,11.787793865286641,SP
2,-23.45401604424807,-46.398493604436,2020-03-03 20:58:52,2.7400354079142097,SP
2,-23.453861378650135,-46.398627318941216,2020-03-10 21:24:32,2.25160849599763,SP
2,-23.453908822103006,-46.39862092214677,2020-03-17 21:57:49,0.8022741629908278,SP
2,-23.45399502769811,-46.39866319033104,2020-03-24 22:07:27,0.5460852047351528,SP
2,-23.45385313971941,-46.398654952988366,2020-03-04 07:13:01,2.692061620619051,SP
2,-23.453979772592742,-46.39849303031278,2020-03-11 07:22:36,1.1139948523463317,SP
2,-23.453981228495397,-46.39860520196786,2020-03-18 07:40:05,1.9173242440681546,SP
2,-23.453851347902017,-46.39854223955919,2020-03-25 07:44:55,1.9037836935538455,SP
2,-23.44810617455293,-46.40394065652605,2020-03-04 08:36:11,34.39860308939977,SP
2,-23.44877699416451,-46.40953576973736,2020-03-11 08:47:53,15.881654193964515,SP
2,-23.449290712217984,-46.40459585712045,2020-03-18 09:13:55,34.82214906795991,SP
2,-23.453648586073644,-46.412708937207476,2020-03-25 09:41:39,10.477227457541066,SP
2,-23.450976735648887,-46.40778209737814,2020-03-04 09:24:48,1.277001229531589,SP
2,-23.450855318484887,-46.40772940483904,2020-03-11 09:44:23,0.6161477645056377,SP
2,-23.450864137955023,-46.407649035317355,2020-03-18 10:22:42,1.9483111804733437,SP
2,-23.450833383662193,-46.40762586042035,2020-03-25 10:38:43,0.26928754723559156,SP
2,-23.424582287055948,-46.4762601434148,2020-03-04 09:07:59,2.4471952195219386,SP
2,-23.42444778039514,-46.47609871644142,2020-03-11 09:16:33,1.9159048689487697,SP
2,-23.424457594733923,-46.4761754991114,2020-03-18 10:16:17,2.96125505032486,SP
2,-23.42461597958058,-46.47612685477492,2020-03-25 10:35:24,1.2233787850217472,SP
2,-23.45390884685962,-46.398516772747705,2020-03-04 18:55:52,0.34496173811310094,SP
2,-23.45391594373075,-46.398477357463086,2020-03-11 19:41:47,2.8879642146664164,SP
2,-23.453974077716897,-46.39863930950102,2020-03-18 19:53:42,2.0682250270710565,SP
2,-23.45387497034999,-46.3985941184788,2020-03-25 20:10:35,2.636420576310179,SP
2,-23.453924939306816,-46.39865645510936,2020-03-05 07:10:34,2.290895184224568,SP
2,-23.45403085444687,-46.39851001951079,2020-03-12 08:10:06,1.0624767754450644,SP
2,-23.453874768535535,-46.39854760946581,2020-03-19 08:29:00,1.3144854201469065,SP
2,-23.453875934771272,-46.39863249776985,2020-03-26 08:43:14,2.60345385843104,SP
2,-23.45270623395065,-46.40543957785539,2020-03-05 08:36:15,11.287927357285987,SP
2,-23.45275174931713,-46.41010269710766,2020-03-12 09:33:48,29.09924234311089,SP
2,-23.44469097799981,-46.415276641914005,2020-03-19 10:07:08,3.6858357823168784,SP
2,-23.444444651199486,-46.41019360579826,2020-03-26 10:55:37,29.450874797694908,SP
2,-23.42458891809006,-46.476112736564424,2020-03-05 09:47:11,2.136640823425623,SP
2,-23.424547829760105,-46.47624640187164,2020-03-12 09:58:43,1.1227169001653234,SP
2,-23.42459418381392,-46.47623660444535,2020-03-19 10:13:09,0.19984826133671008,SP
2,-23.4246270927807,-46.47614750197831,2020-03-26 10:59:54,0.6160516159925196,SP
2,-23.43978071119239,-46.43796018680297,2020-03-05 19:09:02,2.4809925996631113,SP
2,-23.439799531849253,-46.43797519903889,2020-03-12 20:00:48,1.2543792920446466,SP
2,-23.439884456893477,-46.438065250558786,2020-03-19 20:46:00,2.5995177874069335,SP
2,-23.43993745366032,-46.437943986227786,2020-03-26 21:20:17,2.0588783866527463,SP
2,-23.45155267959749,-46.48354628011953,2020-03-05 20:42:34,5.28496302154821,SP
2,-23.465078636650187,-46.4855384311732,2020-03-12 20:59:04,6.659821211952901,SP
2,-23.45100774180249,-46.47997295258014,2020-03-19 21:44:15,10.93579372447814,SP
2,-23.451923787042087,-46.474542870095824,2020-03-26 22:30:28,25.833906887143616,SP
2,-23.454005553558147,-46.39860543302696,2020-03-05 21:33:54,0.22365801931467036,SP
2,-23.453907987318512,-46.398478460350894,2020-03-12 21:55:46,1.5144248192097238,SP
2,-23.454007931498484,-46.398559961094875,2020-03-19 22:23:16,1.3990037290734363,SP
2,-23.453897150624414,-46.3986290672957,2020-03-26 22:58:34,1.0323657783683955,SP
2,-23.453990469925344,-46.39854767581658,2020-03-06 07:24:43,1.364013521797848,SP
2,-23.45400500250422,-46.398540296736805,2020-03-13 07:44:45,0.5138172838287643,SP
2,-23.454028031841876,-46.398534008110026,2020-03-20 08:25:00,0.6426942289352727,SP
2,-23.45392449651208,-46.3986307298094,2020-03-27 09:11:58,2.3398816919497576,SP
2,-23.42158849121287,-46.5015086644544,2020-03-06 08:34:31,39.4888181710336,SP
2,-23.4222534456681,-46.48465810740592,2020-03-13 09:20:01,38.859776744027194,SP
2,-23.423054589903902,-46.49629927196679,2020-03-20 10:16:20,35.1589783705848,SP
2,-23.420493564947638,-46.48778113330833,2020-03-27 10:42:37,33.82423717884208,SP
2,-23.42461698802943,-46.47612245049096,2020-03-06 09:32:31,2.927472509265458,SP
2,-23.42446347442227,-46.476112543679996,2020-03-13 09:42:19,1.663533673194802,SP
2,-23.424562109010857,-46.47620865691014,2020-03-20 10:26:00,0.2573436635930959,SP
2,-23.424567092069708,-46.47617182461717,2020-03-27 11:19:33,0.18479611704578675,SP
2,-23.441413907076548,-46.44691288539139,2020-03-06 19:23:00,39.92200327892221,SP
2,-23.445267174025037,-46.44828385628005,2020-03-13 20:21:05,7.347945544516881,SP
2,-23.44267529902286,-46.44808484858605,2020-03-20 20:46:31,10.988106849349785,SP
2,-23.443200842155548,-46.44715936250579,2020-03-27 20:49:49,16.253850498861468,SP
2,-23.453979846563072,-46.39865674746766,2020-03-06 19:46:09,0.7333337094424874,SP
2,-23.4539241113988,-46.39865160545844,2020-03-13 20:00:14,1.264137115045015,SP
2,-23.453981495578407,-46.398655087944455,2020-03-20 20:51:06,1.7635021993402151,SP
2,-23.4540008510116,-46.39849335507544,2020-03-27 21:01:02,2.1216378550652895,SP
2,-23.442499026315264,-46.452494573256146,2020-03-07 10:45:06,17.390829592604867,SP
2,-23.4548802822825,-46.4484036166354,2020-03-14 10:58:42,4.560858183850957,SP
2,-23.442353781150196,-46.45914771190823,2020-03-21 11:38:19,30.527205729340416,SP
2,-23.439562668343633,-46.45347762646432,2020-03-28 12:24:02,16.89695605617818,SP
2,-23.45390254614359,-46.39866125657143,2020-03-07 20:51:29,1.0701103704372215,SP
2,-23.454036193262016,-46.39866521350318,2020-03-14 21:48:32,1.2676935138203709,SP
2,-23.453859511248602,-46.39865225225644,2020-03-21 22:04:43,2.8743722365723072,SP
2,-23.453885478221217,-46.398589138020974,2020-03-28 22:48:18,2.1644576145955265,SP
2,-23.453853295838666,-46.39862151156645,2020-03-08 17:03:47,1.0374711203167277,SP
2,-23.453878050236643,-46.39859821138483,2020-03-15 17:55:08,0.5245777433463431,SP
2,-23.453850428543344,-46.39850170622975,2020-03-22 18:51:36,0.11283879233524319,SP
2,-23.454015395001633,-46.398513574316475,2020-03-29 19:30:15,1.0866140978997916,SP
2,-23.453994273606266,-46.398554786059584,2020-03-24 18:06:14,0.9457807183867182,SP
2,-23.453905231558526,-46.39854282544546,2020-03-31 18:12:01,1.4580666424558053,SP
2,-23.453903381281794,-46.398530414252114,2020-04-07 18:39:15,2.3293154675619103,SP
2,-23.45387509186761,-46.39848462729546,2020-04-14 18:56:38,2.9564716218331286,SP
2,-23.453962210651742,-46.39849308124516,2020-03-25 11:53:51,2.8002754637614635,SP
2,-23.454022157781406,-46.39859097791928,2020-04-01 12:23:05,0.3800412888578142,SP
2,-23.45403574602267,-46.398626446720485,2020-04-08 12:49:08,1.4066083869668968,SP
2,-23.453993815962402,-46.39865413138735,2020-04-15 13:29:11,1.0226848089804517,SP
2,-23.497429725423228,-46.46544010646885,2020-03-25 11:49:46,25.610732092850817,SP
2,-23.48473801893286,-46.46563737087696,2020-04-01 12:17:13,9.559579776518765,SP
2,-23.492184037630608,-46.4492600103468,2020-04-08 12:41:42,8.387923665003207,SP
2,-23.48286796235186,-46.449633008530526,2020-04-15 12:45:30,4.812458540330081,SP
